<?xml version="1.0" encoding="utf-8"?>
<!-- Generator: Adobe Illustrator 24.1.1, SVG Export Plug-In . SVG Version: 6.00 Build 0)  -->
<svg version="1.1" id="Livello_1" xmlns="http://www.w3.org/2000/svg" xmlns:xlink="http://www.w3.org/1999/xlink" x="0px" y="0px"
	 viewBox="0 0 1000 1000" style="enable-background:new 0 0 1000 1000;" xml:space="preserve">
<style type="text/css">
	.st0{fill:#FFFFFF;}
	.st1{fill-rule:evenodd;clip-rule:evenodd;fill:#00A5FF;}
	.st2{fill-rule:evenodd;clip-rule:evenodd;fill:#FFFFFF;}
</style>
<g>
	<path class="st0" d="M1000,440.4c0,45.5-20.3,91.7-54.9,136.6l-29.8,34.6C696.7,842.1,123.7,1016.3,37.5,804.3
		c-50.8-124.9-48.2-258-3.1-374.6l16.7-38.4C105.2,279.7,200,187,325.3,137.1C591,31.5,1000,157.1,1000,440.4z"/>
	<path class="st1" d="M811.8,611.6V391.4h165.1V426h-126v57.3h111.7v34.6H850.9V577h94.2c34.6-44.8,54.9-91.1,54.9-136.6
		c0-283.3-409-408.9-674.7-303.2C200,187,105.2,279.7,51.1,391.4h22.4v91.5h106.3v-91.5h39.1v220.2h-39.1v-92.8H73.5v92.8H34.4
		V429.8c-45.1,116.6-47.7,249.6,3.1,374.6c86.2,211.9,659.2,37.7,877.8-192.8H811.8z"/>
	<path class="st2" d="M739.9,465.6c0,49.4-40.1,75.2-89,75.2h-44.2v70.8h-39.1V391.3h87.8c52.2,0,84.6,29.3,84.6,73.6V465.6z"/>
	<path class="st1" d="M652.2,426.6h-45.5v79.3h45.5c29.6,0,48-16.4,48-39.3v-0.6C700.2,440.1,681.4,426.6,652.2,426.6"/>
	<path class="st2" d="M412.9,523.8v87.8h-39.5v-86.8L285,391.3h46.5l62,97.2l63-97.2h44.9L412.9,523.8z"/>
</g>
</svg>
