<?xml version="1.0" encoding="utf-8"?>
<!-- Generator: Adobe Illustrator 23.0.3, SVG Export Plug-In . SVG Version: 6.00 Build 0)  -->
<svg version="1.1" id="Livello_1" xmlns="http://www.w3.org/2000/svg" xmlns:xlink="http://www.w3.org/1999/xlink" x="0px" y="0px"
	 viewBox="0 0 1000 1000" style="enable-background:new 0 0 1000 1000;" xml:space="preserve">
<style type="text/css">
	.st0{fill:#EEDC00;}
	.st1{fill-rule:evenodd;clip-rule:evenodd;fill:#254F9E;}
</style>
<circle class="st0" cx="500" cy="500" r="500"/>
<g>
	<path id="path18_1_" class="st1" d="M120.2,713.3V286.6h196.6c104.8,0,173.5,33.7,173.5,137.1c0,103.5-68.7,137.2-173.5,137.2
		h-78.2v152.5H120.2z M299.6,478.1c46.8-1.8,66.3-23,66.3-54.4c0-31.3-19.5-52.6-66.3-54.4h-61v108.8H299.6"/>
	<polygon class="st1" points="879.8,286.7 494,286.7 494,374.3 627.9,374.3 627.9,713.4 746,713.4 746,374.3 879.8,374.3 	"/>
</g>
</svg>
