<?xml version="1.0" encoding="utf-8"?>
<!-- Generator: Adobe Illustrator 23.0.3, SVG Export Plug-In . SVG Version: 6.00 Build 0)  -->
<svg version="1.1" id="Livello_1" xmlns="http://www.w3.org/2000/svg" xmlns:xlink="http://www.w3.org/1999/xlink" x="0px" y="0px"
	 viewBox="0 0 1000 1000" style="enable-background:new 0 0 1000 1000;" xml:space="preserve">
<style type="text/css">
	.st0{fill:#204295;}
</style>
<g>
	<path class="st0" d="M0.4,560.8c24.9,0,49.5,0,75,0c0,3-0.1,5.9,0,8.8c0.8,22.9,12.1,38.3,33.9,45.1c18.4,5.7,37,5.7,55.5,0.3
		c19.4-5.7,29.2-21.7,25.8-41.6c-1.2-7.5-5.4-13.5-11.8-17.1c-8.6-4.8-17.6-9.4-26.9-12.6c-24.8-8.6-50-16.1-74.8-24.7
		c-16.7-5.9-32.4-14.2-45.2-26.8C8.2,468.9,2.2,440.1,8.6,408.7c7.6-37.1,31.5-61.5,66.1-74.4c44.5-16.6,89.8-17.1,134.2,1.1
		c38.2,15.6,59.7,51.3,57.2,92.7c-0.2,2.8-0.9,4.1-3.9,4.1c-22-0.2-44-0.2-65.9-0.3c-0.3,0-0.7-0.3-1.3-0.6
		c-0.2-1.3-0.6-2.7-0.7-4.2c-0.4-27.1-18.4-43.8-44.8-46.7c-15.8-1.7-31.6-1.2-46.2,6.4c-11.6,6-19,15-20.1,28.5
		c-1.2,14.9,4,27,17.1,34.1c9.5,5.1,19.8,8.9,30,12.4c26.1,8.9,52.5,16.9,78.5,26.1c14.9,5.3,28.6,13.3,40,24.7
		c19.3,19.2,25.6,43.1,23.1,69.2c-4.8,49.4-35.6,76.6-80.9,88.8c-42.3,11.5-85,10.3-126.3-4.9C16.2,647.8-3.2,605.9,0.4,560.8z"/>
	<path class="st0" d="M901.2,506.3c0,16.3,0.1,31.3-0.2,46.3c0,1.5-2.4,3.5-4.1,4.2c-11.6,4.9-23.5,9-34.9,14.2
		c-18.9,8.6-22.8,31.4-7.3,44.1c4.7,3.9,11.1,6.8,17.1,7.8c19.6,3.2,36.9-1.5,49.3-18.5c6-8.3,7.7-17.9,7.8-27.7
		c0.2-25.7,0.1-51.5,0.1-77.2c0-21.1-8.9-32.2-29.7-35.8c-10.4-1.8-21-1.6-31.1,2.1c-13.2,4.8-21,14.2-22.8,28.1
		c-0.6,4.4-1.9,6-6.5,6c-18.4-0.3-36.8-0.2-55.2-0.2c-1.6,0-3.3-0.2-5.8-0.4c0.3-4.9,0.3-9.6,1-14.1c5.8-36.8,27.8-60.1,62.4-71.1
		c35.7-11.3,72-10.8,107.3,1.8c33.4,11.9,51.1,38,51.2,73.2c0.3,59.8,0.1,119.5,0.1,179.3c0,1.3-0.2,2.6-0.3,4.6
		c-7.8,0-15.5,0-23.1,0c-14.3,0-28.6-0.1-42.8,0.1c-3.7,0-5-1.2-4.9-4.8c0.2-7.2,0.1-14.4,0.1-21.6c-9,6.5-16.6,13.9-25.7,18.2
		c-33,15.8-66.4,17.3-98.3-2.6c-42.4-26.5-44.2-88.2-3.7-117.4c8.1-5.9,17.1-11.2,26.5-14.5C851.6,521.6,875.8,514.4,901.2,506.3z"
		/>
	<path class="st0" d="M541.6,561.9c-49.5,0-99,0-148.8,0c0-15.1,0-29.7,0-45c25.6,0,51,0,77.1,0c-0.7-16.6-6.3-30.1-18.6-40.1
		c-26.1-21.2-65.3-10.5-78.8,22.4c-11.5,28.1-11.9,57.2-0.3,85.6c7.7,18.8,22.5,29.2,42.8,31.1c20.3,1.8,38.6-2.3,51.3-20.1
		c2-2.9,3.5-6.1,5.4-9.6c20.6,6.7,41.2,13.4,62.3,20.2c-4.6,13.6-11.7,24.8-21.1,34.8c-15.8,16.7-35.3,26.4-57.5,31.1
		c-28.7,6.1-57.2,5.8-84.9-4.6C335.9,654.5,311.8,630,300,595c-14.9-44-11.3-87.4,12.1-127.7c24.1-41.7,62.3-59.7,109.7-59.2
		c27.5,0.3,52.5,8.2,74.2,25.5c16.2,13,27.3,29.7,35.1,48.8C541.5,508.5,543.4,535.7,541.6,561.9z"/>
	<path class="st0" d="M569.5,672.4c0-2.4,0-4.5,0-6.5c0-110.6,0.1-221.2-0.1-331.8c0-5.4,1.3-7,6.8-6.9c19.2,0.3,38.3,0.1,57.5,0.1
		c1.9,0,3.7,0,6,0c0,115.2,0,230,0,345.1C616.5,672.4,593.3,672.4,569.5,672.4z"/>
	<path class="st0" d="M745.7,327.3c0,3,0,5.2,0,7.4c0.1,110.3,0.2,220.5,0.2,330.8c0,7.2,0,7.2-7.4,7.2c-19-0.1-37.9-0.2-56.9-0.1
		c-4.5,0-6.2-1.1-6.2-5.9c0.1-111.2,0.1-222.4,0-333.6c0-4.2,0.8-5.9,5.5-5.9C702.2,327.4,723.4,327.3,745.7,327.3z"/>
</g>
</svg>
